…
# adding a small time delay to avoid simultaneous posts to the API
Sys.sleep(3)
get_news("ycombinator.com")
#> GET request successful. Parsing...
#> Warning: Predicate functions must be wrapped in `where()`.
#> 
#>   # Bad
#>   data %>% select(is.character)
#> 
#>   # Good
#>   data %>% select(where(is.character))
#> 
#> ℹ Please update your code.
#> This message is displayed once per session.
#> # A tibble: 30 x 10
#>    feed_title feed_link feed_description feed_pub_date       item_title
#>    <chr>      <chr>     <chr>            <dttm>              <chr>     
#>  1 Hacker Ne… https://… Links for the i… 2020-07-07 16:50:50 Searchabl…
#>  2 Hacker Ne… https://… Links for the i… 2020-07-07 16:50:50 Show HN: …
#>  3 Hacker Ne… https://… Links for the i… 2020-07-07 16:50:50 Caffenol:…
#>  4 Hacker Ne… https://… Links for the i… 2020-07-07 16:50:50 Dune: The…
#>  5 Hacker Ne… https://… Links for the i… 2020-07-07 16:50:50 Google Co…
#>  6 Hacker Ne… https://… Links for the i… 2020-07-07 16:50:50 Keeping y…
#>  7 Hacker Ne… https://… Links for the i… 2020-07-07 16:50:50 Classifyi…
#>  8 Hacker Ne… https://… Links for the i… 2020-07-07 16:50:50 The Slack…
#>  9 Hacker Ne… https://… Links for the i… 2020-07-07 16:50:50 Nokia to …
#> 10 Hacker Ne… https://… Links for the i… 2020-07-07 16:50:50 Google of…
#> # … with 20 more rows, and 5 more variables: item_link <chr>,
#> #   item_description <chr>, item_pub_date <dttm>, item_category <list>,
#> #   item_comments <chr>
```
…
`tld_sources(tld)` returns rows from the provided dataset of news sites
with the given top level domain

``` r
library(newscatcheR)
tld_sources("it")
#> # A tibble: 238 x 7
#>    clean_url  language topic_unified main  clean_country rss_url      GlobalRank
#>    <chr>      <chr>    <chr>         <chr> <chr>         <chr>        <chr>     
#>  1 zonalocal… it       news          1     None          http://www.… 620899    
#>  2 wittgenst… it       news          1     None          http://www.… 321276    
#>  3 wired.it   it       tech          1     None          http://www.… 10861     
#>  4 wired.it   it       science       None  None          http://www.… 10861     
#>  5 wired.it   it       news          None  None          http://www.… 10861     
#>  6 wired.it   it       economics     None  None          http://www.… 10861     
#>  7 webtrek.it it       tech          1     None          http://www.… 546151    
#>  8 vita.it    it       world         None  None          http://www.… 37772     
#>  9 vita.it    it       politics      None  None          http://www.… 37772     
#> 10 vita.it    it       news          1     None          http://www.… 37772     
#> # … with 228 more rows
```
…
