newscatcheR • newscatcheR
…
# adding a small time delay to avoid simultaneous posts to the API
Sys.sleep(3)
get_news(website = "ycombinator.com", rss_table = package_rss)
#> GET request successful. Parsing...
#> Warning: Predicate functions must be wrapped in `where()`.
#> 
#>   # Bad
#>   data %>% select(is.character)
#> 
#>   # Good
#>   data %>% select(where(is.character))
#> 
#> ℹ Please update your code.
#> This message is displayed once per session.
#> # A tibble: 30 x 10
#>    feed_title feed_link feed_description feed_pub_date       item_title
#>    <chr>      <chr>     <chr>            <dttm>              <chr>     
#>  1 Hacker Ne… https://… Links for the i… 2020-07-11 13:52:27 CRDTs: Th…
#>  2 Hacker Ne… https://… Links for the i… 2020-07-11 13:52:27 The Moder…
#>  3 Hacker Ne… https://… Links for the i… 2020-07-11 13:52:27 Testing F…
#>  4 Hacker Ne… https://… Links for the i… 2020-07-11 13:52:27 How to Un…
#>  5 Hacker Ne… https://… Links for the i… 2020-07-11 13:52:27 Tracking …
#>  6 Hacker Ne… https://… Links for the i… 2020-07-11 13:52:27 A Doctor …
#>  7 Hacker Ne… https://… Links for the i… 2020-07-11 13:52:27 Favorite …
#>  8 Hacker Ne… https://… Links for the i… 2020-07-11 13:52:27 Scientist…
#>  9 Hacker Ne… https://… Links for the i… 2020-07-11 13:52:27 Beware of…
#> 10 Hacker Ne… https://… Links for the i… 2020-07-11 13:52:27 Porting a…
#> # … with 20 more rows, and 5 more variables: item_link <chr>,
#> #   item_description <chr>, item_pub_date <dttm>, item_category <list>,
#> #   item_comments <chr>
…
